{
  "apps": [
    {
      "name": "ingrad-pt-react-es-general",
      "script": "./serve.js",
      "exec_mode": "fork",
      "force": true,
      "env_production": {
        "NODE_ENV": "production"
      }
    }
  ]
}
